[gd_scene load_steps=2 format=2]

[ext_resource path="res://GUI/SortableTable/SortableTableRow.gd" type="Script" id=1]

[node name="SortabelTableRow" type="MarginContainer"]

anchor_left = 0.0
anchor_top = 0.0
anchor_right = 0.0
anchor_bottom = 0.0
margin_top = 24.0
margin_right = 1276.0
margin_bottom = 54.0
rect_min_size = Vector2( 0, 30 )
rect_pivot_offset = Vector2( 0, 0 )
rect_clip_content = false
mouse_filter = 1
mouse_default_cursor_shape = 0
size_flags_horizontal = 3
size_flags_vertical = 1
custom_constants/margin_right = 0
custom_constants/margin_top = 0
custom_constants/margin_left = 0
custom_constants/margin_bottom = 0
script = ExtResource( 1 )
_sections_unfolded = [ "Focus", "Margin", "Rect", "Size Flags", "custom_constants" ]
row_color = Color( 0.235294, 0.235294, 0.235294, 1 )
row_color_selected = Color( 0.788235, 0.537255, 0.411765, 1 )

[node name="BackgroundColor" type="ColorRect" parent="." index="0"]

anchor_left = 0.0
anchor_top = 0.0
anchor_right = 0.0
anchor_bottom = 0.0
margin_right = 1276.0
margin_bottom = 30.0
rect_pivot_offset = Vector2( 0, 0 )
rect_clip_content = false
mouse_filter = 2
mouse_default_cursor_shape = 0
size_flags_horizontal = 1
size_flags_vertical = 1
color = Color( 0.273529, 0.273529, 0.273529, 1 )
_sections_unfolded = [ "Anchor", "Margin", "Mouse", "Rect", "Visibility" ]

[node name="HBoxContainer" type="HBoxContainer" parent="." index="1"]

anchor_left = 0.0
anchor_top = 0.0
anchor_right = 0.0
anchor_bottom = 0.0
margin_right = 1276.0
margin_bottom = 30.0
rect_pivot_offset = Vector2( 0, 0 )
rect_clip_content = false
mouse_filter = 2
mouse_default_cursor_shape = 0
size_flags_horizontal = 3
size_flags_vertical = 3
custom_constants/separation = 0
alignment = 0
_sections_unfolded = [ "Grow Direction", "Mouse", "Rect", "Size Flags", "Theme", "Visibility", "custom_constants" ]

[connection signal="gui_input" from="." to="." method="_on_SortabelTableRow_gui_input"]

[connection signal="mouse_entered" from="." to="." method="_on_SortabelTableRow_mouse_entered"]

[connection signal="mouse_exited" from="." to="." method="_on_SortabelTableRow_mouse_exited"]


