[gd_scene load_steps=5 format=2]

[ext_resource path="res://GUI/SortableTable/specific_sortable_table_cell_elements/CurrentJobLink/CurrentJobLink.gd" type="Script" id=1]
[ext_resource path="res://GUI/icons/link/15x15/link_default_15x15.png" type="Texture" id=2]
[ext_resource path="res://GUI/icons/link/15x15/link_clicked_15x15.png" type="Texture" id=3]
[ext_resource path="res://GUI/icons/link/15x15/link_hover_15x15.png" type="Texture" id=4]

[node name="HBoxContainer" type="HBoxContainer"]
margin_right = 40.0
margin_bottom = 40.0
mouse_filter = 2
size_flags_horizontal = 3
size_flags_vertical = 3
custom_constants/separation = 5
script = ExtResource( 1 )

[node name="TextureButton" type="TextureButton" parent="."]
margin_top = 12.0
margin_right = 15.0
margin_bottom = 27.0
rect_min_size = Vector2( 15, 15 )
hint_tooltip = "select this job"
size_flags_horizontal = 4
size_flags_vertical = 4
texture_normal = ExtResource( 2 )
texture_pressed = ExtResource( 3 )
texture_hover = ExtResource( 4 )

[node name="CurrentJobLabel" type="Label" parent="."]
margin_left = 20.0
margin_top = 13.0
margin_right = 56.0
margin_bottom = 27.0
text = "name"
[connection signal="mouse_entered" from="TextureButton" to="." method="_on_TextureButton_mouse_entered"]
[connection signal="mouse_exited" from="TextureButton" to="." method="_on_TextureButton_mouse_exited"]
[connection signal="pressed" from="TextureButton" to="." method="_on_TextureButton_pressed"]
